{
        "temperature-outside" : "dht22",
        "temperature-inside-1" : "dht22",
        "temperature-inside-2" : "dht22",
        "distance-1" : "hcsr04",
        "distance-2" : "hcsr04",
        "light-outside" : "slm393",
        "light-outside-1" : "slm393",
        "light-outside-2" : "slm393",
        "light-inside" : "slm393",  
        "light-inside-1" : "slm393",
        "13" : "dht22",
        "1" : "hcsr04",
        "12" : "slm393",
        "14" : "rpi"
}